{
  "project_info": {
    "project_number": "787117035808",
    "project_id": "autopot-4db99",
    "storage_bucket": "autopot-4db99.appspot.com"
  },
  "client": [
    {
      "client_info": {
        "mobilesdk_app_id": "1:787117035808:android:fa6c93d4980a7433814745",
        "android_client_info": {
          "package_name": "com.foursucceed.autopot_app"
        }
      },
      "oauth_client": [
        {
          "client_id": "787117035808-62taaduovjo97k5mkpfcuv7tre64v490.apps.googleusercontent.com",
          "client_type": 3
        }
      ],
      "api_key": [
        {
          "current_key": "AIzaSyC_MoO-w8ABmZWc3o5HHAwvJjo6NagGxIk"
        }
      ],
      "services": {
        "appinvite_service": {
          "other_platform_oauth_client": [
            {
              "client_id": "787117035808-62taaduovjo97k5mkpfcuv7tre64v490.apps.googleusercontent.com",
              "client_type": 3
            }
          ]
        }
      }
    }
  ],
  "configuration_version": "1"
}